EESchema Schematic File Version 4
EELAYER 30 0
EELAYER END
$Descr A4 11693 8268
encoding utf-8
Sheet 1 1
Title ""
Date ""
Rev ""
Comp ""
Comment1 ""
Comment2 ""
Comment3 ""
Comment4 ""
$EndDescr
$Comp
L power:+5V #PWR0101
U 1 1 62251219
P 7150 3150
F 0 "#PWR0101" H 7150 3000 50  0001 C CNN
F 1 "+5V" H 7165 3323 50  0000 C CNN
F 2 "" H 7150 3150 50  0001 C CNN
F 3 "" H 7150 3150 50  0001 C CNN
	1    7150 3150
	1    0    0    -1  
$EndComp
$Comp
L power:+5V #PWR0102
U 1 1 622514BF
P 5700 1400
F 0 "#PWR0102" H 5700 1250 50  0001 C CNN
F 1 "+5V" H 5715 1573 50  0000 C CNN
F 2 "" H 5700 1400 50  0001 C CNN
F 3 "" H 5700 1400 50  0001 C CNN
	1    5700 1400
	1    0    0    -1  
$EndComp
Wire Wire Line
	5700 1400 5700 1500
$Comp
L power:GND #PWR0106
U 1 1 62256F58
P 3750 3850
F 0 "#PWR0106" H 3750 3600 50  0001 C CNN
F 1 "GND" H 3755 3677 50  0000 C CNN
F 2 "" H 3750 3850 50  0001 C CNN
F 3 "" H 3750 3850 50  0001 C CNN
	1    3750 3850
	1    0    0    -1  
$EndComp
Wire Wire Line
	5000 3000 4850 3000
Wire Wire Line
	6750 2900 6750 5050
Wire Wire Line
	6750 5050 6050 5050
$Comp
L power:+5V #PWR0107
U 1 1 6226579A
P 6600 4200
F 0 "#PWR0107" H 6600 4050 50  0001 C CNN
F 1 "+5V" H 6615 4373 50  0000 C CNN
F 2 "" H 6600 4200 50  0001 C CNN
F 3 "" H 6600 4200 50  0001 C CNN
	1    6600 4200
	1    0    0    -1  
$EndComp
$Comp
L power:GND #PWR0108
U 1 1 62264A89
P 6600 4800
F 0 "#PWR0108" H 6600 4550 50  0001 C CNN
F 1 "GND" H 6605 4627 50  0000 C CNN
F 2 "" H 6600 4800 50  0001 C CNN
F 3 "" H 6600 4800 50  0001 C CNN
	1    6600 4800
	1    0    0    -1  
$EndComp
Wire Wire Line
	6600 4200 6600 4300
Wire Wire Line
	6600 4800 6600 4700
Wire Wire Line
	5600 1500 5600 1100
Wire Wire Line
	5000 3200 4750 3200
Wire Wire Line
	4750 3200 4750 1050
Wire Wire Line
	4800 1000 4800 2900
Wire Wire Line
	4800 2900 5000 2900
Wire Wire Line
	4850 950  4850 3000
Wire Wire Line
	4900 900  4900 3100
Wire Wire Line
	4900 3100 5000 3100
$Comp
L Device:LED D1
U 1 1 622D7772
P 4150 1400
F 0 "D1" V 4189 1283 50  0000 R CNN
F 1 "LED" V 4098 1283 50  0000 R CNN
F 2 "Pin_Headers:Pin_Header_Straight_1x02_Pitch2.54mm" H 4150 1400 50  0001 C CNN
F 3 "~" H 4150 1400 50  0001 C CNN
	1    4150 1400
	0    -1   -1   0   
$EndComp
$Comp
L power:GND #PWR0112
U 1 1 622DB6F0
P 4150 1650
F 0 "#PWR0112" H 4150 1400 50  0001 C CNN
F 1 "GND" H 4150 1500 50  0000 C CNN
F 2 "" H 4150 1650 50  0001 C CNN
F 3 "" H 4150 1650 50  0001 C CNN
	1    4150 1650
	1    0    0    -1  
$EndComp
Wire Wire Line
	4150 1550 4150 1650
$Comp
L Device:R R1
U 1 1 622DD51B
P 4400 1150
F 0 "R1" H 4250 1200 50  0000 L CNN
F 1 "1K" V 4400 1100 50  0000 L CNN
F 2 "Resistors_THT:R_Axial_DIN0207_L6.3mm_D2.5mm_P10.16mm_Horizontal" V 4330 1150 50  0001 C CNN
F 3 "~" H 4400 1150 50  0001 C CNN
	1    4400 1150
	0    -1   -1   0   
$EndComp
$Comp
L Connector_Generic:Conn_01x03 J1
U 1 1 6234B564
P 7150 5600
F 0 "J1" H 7068 5275 50  0000 C CNN
F 1 "SIREN" H 7068 5366 50  0000 C CNN
F 2 "Connectors_Terminal_Blocks:TerminalBlock_bornier-3_P5.08mm" H 7150 5600 50  0001 C CNN
F 3 "~" H 7150 5600 50  0001 C CNN
	1    7150 5600
	1    0    0    -1  
$EndComp
$Comp
L my_relays:JQC-3F K2
U 1 1 6228F0EE
P 5600 5550
F 0 "K2" H 5675 5987 60  0000 C CNN
F 1 "SRD-05VDC-SL-C" H 5675 5881 60  0000 C CNN
F 2 "myRelays:Relay_JQC-3F" H 5600 5550 60  0001 C CNN
F 3 "" H 5600 5550 60  0000 C CNN
	1    5600 5550
	1    0    0    -1  
$EndComp
Wire Wire Line
	6350 5450 6700 5450
Wire Wire Line
	6700 5450 6700 5500
Wire Wire Line
	6700 5500 6950 5500
Wire Wire Line
	6950 5600 6350 5600
Wire Wire Line
	6350 5750 6700 5750
Wire Wire Line
	6700 5750 6700 5700
Wire Wire Line
	6700 5700 6950 5700
Wire Wire Line
	4900 5150 4900 5250
Wire Wire Line
	4900 5450 5000 5450
$Comp
L Device:D D2
U 1 1 623152CB
P 4750 5500
F 0 "D2" V 4704 5579 50  0000 L CNN
F 1 "D" V 4795 5579 50  0000 L CNN
F 2 "Diodes_THT:D_DO-35_SOD27_P7.62mm_Horizontal" H 4750 5500 50  0001 C CNN
F 3 "~" H 4750 5500 50  0001 C CNN
	1    4750 5500
	0    1    1    0   
$EndComp
Wire Wire Line
	4750 5350 4750 5250
Wire Wire Line
	4750 5250 4900 5250
Connection ~ 4900 5250
Wire Wire Line
	4900 5250 4900 5450
$Comp
L power:+5V #PWR0114
U 1 1 622D3ADE
P 4900 5150
F 0 "#PWR0114" H 4900 5000 50  0001 C CNN
F 1 "+5V" H 4915 5323 50  0000 C CNN
F 2 "" H 4900 5150 50  0001 C CNN
F 3 "" H 4900 5150 50  0001 C CNN
	1    4900 5150
	1    0    0    -1  
$EndComp
Wire Wire Line
	4750 5650 4750 5750
Wire Wire Line
	4750 5750 5000 5750
$Comp
L my_misc_modules:HC-SR501 U1
U 1 1 622A0902
P 7250 3500
F 0 "U1" H 7467 3023 60  0000 C CNN
F 1 "HC-SR501" H 7467 3129 60  0000 C CNN
F 2 "Pin_Headers:Pin_Header_Straight_1x03_Pitch2.54mm" H 7250 3530 60  0001 C CNN
F 3 "" H 7250 3530 60  0001 C CNN
	1    7250 3500
	1    0    0    1   
$EndComp
Wire Wire Line
	7250 3350 7150 3350
Wire Wire Line
	7150 3150 7150 3350
$Comp
L power:GND #PWR0116
U 1 1 622BA085
P 7150 3650
F 0 "#PWR0116" H 7150 3400 50  0001 C CNN
F 1 "GND" H 7155 3477 50  0000 C CNN
F 2 "" H 7150 3650 50  0001 C CNN
F 3 "" H 7150 3650 50  0001 C CNN
	1    7150 3650
	1    0    0    -1  
$EndComp
Wire Wire Line
	7000 3450 7000 3750
Wire Wire Line
	7250 3450 7000 3450
Wire Wire Line
	7250 3550 7150 3550
Wire Wire Line
	7150 3550 7150 3650
Wire Wire Line
	6800 5100 6800 3000
Wire Wire Line
	5950 5100 6800 5100
Wire Wire Line
	5950 4950 5950 5100
Wire Wire Line
	6050 5050 6050 4950
Wire Wire Line
	6600 4300 6500 4300
Wire Wire Line
	6600 4700 6500 4700
$Comp
L my_displays:DISPLAY-2004-I2C DS1
U 1 1 62260C9C
P 5500 4450
F 0 "DS1" H 5350 4200 50  0000 L CNN
F 1 "DISPLAY-2004-I2C" H 5150 4050 50  0000 L CNN
F 2 "Pin_Headers:Pin_Header_Straight_1x04_Pitch2.54mm" H 5300 4900 50  0001 L CIN
F 3 "" H 5500 4450 50  0000 C CNN
	1    5500 4450
	-1   0    0    -1  
$EndComp
Connection ~ 4300 3650
$Comp
L Device:R R3
U 1 1 622C071F
P 4300 4000
F 0 "R3" H 4150 4050 50  0000 L CNN
F 1 "1K" V 4300 3950 50  0000 L CNN
F 2 "Resistors_THT:R_Axial_DIN0207_L6.3mm_D2.5mm_P10.16mm_Horizontal" V 4230 4000 50  0001 C CNN
F 3 "~" H 4300 4000 50  0001 C CNN
	1    4300 4000
	-1   0    0    1   
$EndComp
Wire Wire Line
	4300 3850 4300 3650
$Comp
L Device:Q_NPN_EBC Q1
U 1 1 622C38C2
P 4300 4450
F 0 "Q1" V 4535 4450 50  0000 C CNN
F 1 "2N2222" V 4626 4450 50  0000 C CNN
F 2 "TO_SOT_Packages_THT:TO-92_Inline_Wide" H 4500 4550 50  0001 C CNN
F 3 "~" H 4300 4450 50  0001 C CNN
	1    4300 4450
	0    1    1    0   
$EndComp
Wire Wire Line
	4300 4250 4300 4150
Connection ~ 4750 5750
Wire Wire Line
	4550 4550 4550 5750
Wire Wire Line
	4500 4550 4550 4550
Wire Wire Line
	4550 5750 4750 5750
Wire Wire Line
	4000 4550 4000 4650
$Comp
L power:GND #PWR0115
U 1 1 622F9ADA
P 4000 4650
F 0 "#PWR0115" H 4000 4400 50  0001 C CNN
F 1 "GND" H 4005 4477 50  0000 C CNN
F 2 "" H 4000 4650 50  0001 C CNN
F 3 "" H 4000 4650 50  0001 C CNN
	1    4000 4650
	1    0    0    -1  
$EndComp
Wire Wire Line
	4100 4550 4000 4550
$Comp
L Connector_Generic:Conn_01x02 J3
U 1 1 6227A433
P 3450 5550
F 0 "J3" H 3450 5350 50  0000 C CNN
F 1 "5-12V" V 3550 5500 50  0000 C CNN
F 2 "Pin_Headers:Pin_Header_Straight_1x02_Pitch2.54mm" H 3450 5550 50  0001 C CNN
F 3 "~" H 3450 5550 50  0001 C CNN
	1    3450 5550
	-1   0    0    1   
$EndComp
Wire Wire Line
	3900 5450 3800 5450
$Comp
L power:GND #PWR0113
U 1 1 622810F5
P 3750 5650
F 0 "#PWR0113" H 3750 5400 50  0001 C CNN
F 1 "GND" H 3755 5477 50  0000 C CNN
F 2 "" H 3750 5650 50  0001 C CNN
F 3 "" H 3750 5650 50  0001 C CNN
	1    3750 5650
	1    0    0    -1  
$EndComp
Wire Wire Line
	3650 5550 3750 5550
Wire Wire Line
	3750 5550 3750 5650
$Comp
L power:VCC #PWR0105
U 1 1 62374E85
P 4000 5100
F 0 "#PWR0105" H 4000 4950 50  0001 C CNN
F 1 "VCC" H 4017 5273 50  0000 C CNN
F 2 "" H 4000 5100 50  0001 C CNN
F 3 "" H 4000 5100 50  0001 C CNN
	1    4000 5100
	1    0    0    -1  
$EndComp
Wire Wire Line
	4000 5100 4000 5200
$Comp
L power:+5V #PWR0109
U 1 1 6239D57E
P 4250 5200
F 0 "#PWR0109" H 4250 5050 50  0001 C CNN
F 1 "+5V" H 4265 5373 50  0000 C CNN
F 2 "" H 4250 5200 50  0001 C CNN
F 3 "" H 4250 5200 50  0001 C CNN
	1    4250 5200
	1    0    0    -1  
$EndComp
Wire Wire Line
	4250 5200 4250 5800
Wire Wire Line
	4250 5800 4000 5800
Wire Wire Line
	4000 5800 4000 5700
Connection ~ 3800 5450
Wire Wire Line
	3800 5450 3650 5450
Wire Wire Line
	3800 4250 3800 5450
$Comp
L Device:Jumper_NC_Dual JP1
U 1 1 623D22EF
P 4000 5450
F 0 "JP1" V 3954 5552 50  0000 L CNN
F 1 "POWER" V 4045 5552 50  0000 L CNN
F 2 "Pin_Headers:Pin_Header_Straight_1x03_Pitch2.54mm" H 4000 5450 50  0001 C CNN
F 3 "~" H 4000 5450 50  0001 C CNN
	1    4000 5450
	0    1    1    0   
$EndComp
Wire Wire Line
	4550 1150 4650 1150
Wire Wire Line
	4250 1150 4150 1150
Wire Wire Line
	4150 1150 4150 1250
Wire Wire Line
	3800 3050 3500 3050
Wire Wire Line
	3500 3050 3500 1050
Wire Wire Line
	3500 1050 4650 1050
Wire Wire Line
	4650 1050 4650 1150
Connection ~ 4650 1150
Text GLabel 4000 3250 1    50   Input ~ 0
LED
Text GLabel 4300 3250 1    50   Input ~ 0
ALARM
Text GLabel 4200 3250 1    39   Input ~ 0
Z2
Wire Wire Line
	4000 3250 4000 3450
Wire Wire Line
	4200 3250 4200 3750
Wire Wire Line
	4200 3750 3650 3750
Wire Wire Line
	4300 3650 4300 3550
Wire Wire Line
	4550 2100 5000 2100
Wire Wire Line
	4550 2200 5000 2200
Wire Wire Line
	4550 2300 5000 2300
Wire Wire Line
	4550 2400 5000 2400
Wire Wire Line
	5000 2500 4550 2500
Wire Wire Line
	4550 2600 5000 2600
Wire Wire Line
	5000 2700 4550 2700
Wire Wire Line
	3800 4250 3900 4250
Wire Wire Line
	6000 2900 6750 2900
Wire Wire Line
	6800 3000 6000 3000
Wire Wire Line
	4300 3650 6100 3650
Wire Wire Line
	6100 2600 6000 2600
Wire Wire Line
	6100 2600 6100 3650
Wire Wire Line
	6150 2800 6000 2800
Wire Wire Line
	4650 1150 6150 1150
Wire Wire Line
	6150 1150 6150 2800
Wire Wire Line
	6200 2500 6000 2500
Wire Wire Line
	6200 3750 7000 3750
Wire Wire Line
	6200 3750 6200 2500
Wire Wire Line
	6250 2700 6000 2700
Wire Wire Line
	6250 2200 6250 2700
Wire Wire Line
	6300 950  4850 950 
Wire Wire Line
	6300 2600 6300 950 
Wire Wire Line
	4750 1050 6350 1050
Wire Wire Line
	6350 1050 6350 2700
Wire Wire Line
	6400 1000 4800 1000
Wire Wire Line
	6400 2800 6400 1000
Wire Wire Line
	6450 900  4900 900 
Wire Wire Line
	6450 2500 6450 900 
Wire Wire Line
	5600 1100 6500 1100
Wire Wire Line
	6500 1100 6500 2100
$Comp
L power:GND #PWR0111
U 1 1 6228A376
P 6500 3100
F 0 "#PWR0111" H 6500 2850 50  0001 C CNN
F 1 "GND" H 6505 2927 50  0000 C CNN
F 2 "" H 6500 3100 50  0001 C CNN
F 3 "" H 6500 3100 50  0001 C CNN
	1    6500 3100
	1    0    0    -1  
$EndComp
Wire Wire Line
	6500 3100 6500 2300
Wire Wire Line
	6600 2800 6400 2800
Wire Wire Line
	6350 2700 6600 2700
Wire Wire Line
	6600 2600 6300 2600
Wire Wire Line
	6600 2500 6450 2500
Wire Wire Line
	6500 2300 6600 2300
Wire Wire Line
	6600 2200 6250 2200
Wire Wire Line
	6500 2100 6600 2100
$Comp
L my_misc_modules:MFRC522 U3
U 1 1 6227E223
P 6800 2100
F 0 "U3" H 7250 1800 50  0000 L CNN
F 1 "MFRC522" H 7200 1700 50  0000 L CNN
F 2 "Pin_Headers:Pin_Header_Straight_1x08_Pitch2.54mm" H 6800 2100 50  0001 C CNN
F 3 "" H 6800 2100 50  0001 C CNN
	1    6800 2100
	1    0    0    -1  
$EndComp
$Comp
L power:GND #PWR0103
U 1 1 62251EEF
P 5500 3900
F 0 "#PWR0103" H 5500 3650 50  0001 C CNN
F 1 "GND" H 5505 3727 50  0000 C CNN
F 2 "" H 5500 3900 50  0001 C CNN
F 3 "" H 5500 3900 50  0001 C CNN
	1    5500 3900
	1    0    0    -1  
$EndComp
Wire Wire Line
	5500 3600 5500 3850
Wire Wire Line
	5600 3600 5500 3600
Connection ~ 5500 3600
Wire Wire Line
	5500 3600 5500 3500
Wire Wire Line
	5600 3500 5600 3600
$Comp
L power:VCC #PWR0110
U 1 1 6237B886
P 5400 1400
F 0 "#PWR0110" H 5400 1250 50  0001 C CNN
F 1 "VCC" H 5417 1573 50  0000 C CNN
F 2 "" H 5400 1400 50  0001 C CNN
F 3 "" H 5400 1400 50  0001 C CNN
	1    5400 1400
	1    0    0    -1  
$EndComp
Wire Wire Line
	5400 1400 5400 1500
$Comp
L MCU_Module:Arduino_Nano_v3.x A1
U 1 1 62248F96
P 5500 2500
F 0 "A1" H 5500 2500 50  0000 C CNN
F 1 "Nano_v3.x" H 5850 1500 50  0000 C CNN
F 2 "Modules:Arduino_Nano" H 5500 2500 50  0001 C CIN
F 3 "http://www.mouser.com/pdfdocs/Gravitech_Arduino_Nano3_0.pdf" H 5500 2500 50  0001 C CNN
	1    5500 2500
	1    0    0    -1  
$EndComp
$Comp
L my_switches:KEYBOARD-MATRIX-12 K1
U 1 1 622F5A15
P 4350 2300
F 0 "K1" H 4850 1850 60  0000 C CNN
F 1 "KBD-MATRIX-12" H 4700 2650 60  0000 C CNN
F 2 "Pin_Headers:Pin_Header_Straight_1x07_Pitch2.54mm" H 4350 2300 60  0001 C CNN
F 3 "" H 4350 2300 60  0000 C CNN
	1    4350 2300
	-1   0    0    -1  
$EndComp
$Comp
L Connector_Generic:Conn_01x06 J2
U 1 1 6229E96F
P 3450 3550
F 0 "J2" H 3450 3350 50  0000 C CNN
F 1 "AUX" V 3550 3500 50  0000 C CNN
F 2 "Connectors_Terminal_Blocks:TerminalBlock_bornier-6_P5.08mm" H 3450 3550 50  0001 C CNN
F 3 "~" H 3450 3550 50  0001 C CNN
	1    3450 3550
	-1   0    0    1   
$EndComp
Wire Wire Line
	3900 3250 3650 3250
Wire Wire Line
	3900 3250 3900 4250
Wire Wire Line
	3750 3350 3650 3350
Wire Wire Line
	3750 3350 3750 3850
Wire Wire Line
	4000 3450 3800 3450
Text GLabel 4100 3250 1    39   Input ~ 0
Z1
Wire Wire Line
	4300 3550 3650 3550
Connection ~ 4300 3550
Wire Wire Line
	4300 3550 4300 3250
Wire Wire Line
	4100 3250 4100 3450
Wire Wire Line
	4100 3650 3650 3650
Wire Wire Line
	3800 3050 3800 3450
Connection ~ 3800 3450
Wire Wire Line
	3800 3450 3650 3450
Wire Wire Line
	5000 2800 4600 2800
Wire Wire Line
	4450 3450 4100 3450
Connection ~ 4100 3450
Wire Wire Line
	4100 3450 4100 3650
$Comp
L Device:R R4
U 1 1 6233ED62
P 4450 3050
F 0 "R4" H 4450 2900 50  0000 L CNN
F 1 "4.7K" V 4450 2950 50  0000 L CNN
F 2 "Resistors_THT:R_Axial_DIN0207_L6.3mm_D2.5mm_P10.16mm_Horizontal" V 4380 3050 50  0001 C CNN
F 3 "~" H 4450 3050 50  0001 C CNN
	1    4450 3050
	-1   0    0    1   
$EndComp
Wire Wire Line
	4450 3450 4450 3200
$Comp
L Device:D_Zener D3
U 1 1 62349E64
P 4600 3050
F 0 "D3" V 4500 3050 50  0000 L CNN
F 1 "4.7V" V 4700 3000 50  0000 L CNN
F 2 "Diodes_THT:D_DO-35_SOD27_P7.62mm_Horizontal" H 4600 3050 50  0001 C CNN
F 3 "~" H 4600 3050 50  0001 C CNN
	1    4600 3050
	0    1    1    0   
$EndComp
$Comp
L power:GND #PWR0117
U 1 1 6235B80E
P 4600 3300
F 0 "#PWR0117" H 4600 3050 50  0001 C CNN
F 1 "GND" H 4605 3127 50  0000 C CNN
F 2 "" H 4600 3300 50  0001 C CNN
F 3 "" H 4600 3300 50  0001 C CNN
	1    4600 3300
	1    0    0    -1  
$EndComp
Wire Wire Line
	4600 3200 4600 3300
Wire Wire Line
	4450 2800 4450 2900
Wire Wire Line
	4600 2800 4600 2900
Connection ~ 4600 2800
Wire Wire Line
	4600 2800 4450 2800
$Comp
L Device:R R5
U 1 1 62379FC6
P 4550 3750
F 0 "R5" V 4450 3750 50  0000 L CNN
F 1 "4.7K" V 4550 3650 50  0000 L CNN
F 2 "Resistors_THT:R_Axial_DIN0207_L6.3mm_D2.5mm_P10.16mm_Horizontal" V 4480 3750 50  0001 C CNN
F 3 "~" H 4550 3750 50  0001 C CNN
	1    4550 3750
	0    -1   -1   0   
$EndComp
Wire Wire Line
	4200 3750 4400 3750
Connection ~ 4200 3750
$Comp
L Device:D_Zener D4
U 1 1 62380118
P 5050 3850
F 0 "D4" H 4900 3900 50  0000 L CNN
F 1 "4.7V" H 4950 3750 50  0000 L CNN
F 2 "Diodes_THT:D_DO-35_SOD27_P7.62mm_Horizontal" H 5050 3850 50  0001 C CNN
F 3 "~" H 5050 3850 50  0001 C CNN
	1    5050 3850
	1    0    0    -1  
$EndComp
Wire Wire Line
	4700 3750 4800 3750
Connection ~ 6200 3750
Wire Wire Line
	4900 3850 4800 3850
Wire Wire Line
	4800 3850 4800 3750
Connection ~ 4800 3750
Wire Wire Line
	4800 3750 6200 3750
Wire Wire Line
	5200 3850 5500 3850
Connection ~ 5500 3850
Wire Wire Line
	5500 3850 5500 3900
$EndSCHEMATC
